%YAML 1.1
%TAG !u! tag:unity3d.com,2011:
--- !u!114 &11400000
MonoBehaviour:
  m_ObjectHideFlags: 0
  m_PrefabParentObject: {fileID: 0}
  m_PrefabInternal: {fileID: 0}
  m_GameObject: {fileID: 0}
  m_Enabled: 1
  m_EditorHideFlags: 0
  m_Script: {fileID: 11500000, guid: 1ad573b9921134f69979685fcfb69658, type: 3}
  m_Name: Sinbrand
  m_EditorClassIdentifier: 
  Name: sinbrand
  StatsByLevel: []
  Level: 1
  NumberOfStacks: 1
  BasicAttackAnimationOverride: 
  DeathBehaviourOverride: 0
  CurrentCooldown: 0
  Cooldowns:
  - 1
  - 1
  - 1
  - 1
  - 1
  sinbrandCooldown:
  - 1
  - 1
  - 1
  - 1
  - 1
  sinbrandRange: 450
  sinbrandBaseDamage:
  - 1
  - 1
  - 1
  - 1
  - 1
  sinbrandPowerScaling: 0.5
  sinbrandIsEmpowered: 0
  sinbrandDebuff: {fileID: 11400000, guid: f806971a240c74da6a7f7e2e3e349bc4, type: 2}
  sinbrandDebuffDuration: 2
  sinbrandPercentDamageIncrease:
  - 0.04
  - 0.05
  - 0.06
  - 0.07
  - 0.08
  sinbrandEmpoweredDebuff: {fileID: 11400000, guid: 890d68a518e8c498b81d4a9e3c45d1a7,
    type: 2}
  sinbrandEmpoweredDebuffDuration: 2
  sinbrandEmpoweredBoost: 30
  sinbrandMoveBoostDuration: 0.5
