%YAML 1.1
%TAG !u! tag:unity3d.com,2011:
--- !u!114 &11400000
MonoBehaviour:
  m_ObjectHideFlags: 0
  m_PrefabParentObject: {fileID: 0}
  m_PrefabInternal: {fileID: 0}
  m_GameObject: {fileID: 0}
  m_Enabled: 1
  m_EditorHideFlags: 0
  m_Script: {fileID: 11500000, guid: 2a1e49a919e1ba04da93d9119bb35500, type: 3}
  m_Name: Cold Steel Buff
  m_EditorClassIdentifier: 
  Name: Cold Steel Buff
  Icon: {fileID: 0}
  Level: 1
  BasicAttackAnimationOverride: 
  DeathBehaviourOverride: 0
  Cooldowns:
  - 0
  Parent: {fileID: 11400000, guid: 3863f1782b124994fa04b6123c1a41b3, type: 2}
  StaticStats:
    Power: 0
    Haste: 0
    Mastery: 0
    Penetration: 0
    Lifedrain: 0
    Tenacity: 0
    BaseAttackTime: 0
    AttackRange: 0
    MaxHealth: 0
    HealthRegen: 0
    AutoAttackDamage: 0
    AttackSpeed: 0
    Armor: 0
    Resistance: 0
    CooldownReduction: 0
    BonusCriticalDamage: 0
    MovementSpeed: 0
    HephisaltBounty: 0
    ExperienceBounty: 0
  PercentileStaticStats:
    Power: 0
    Haste: 0
    Mastery: 0
    Penetration: 0
    Lifedrain: 0
    Tenacity: 0
    BaseAttackTime: 0
    AttackRange: 0
    MaxHealth: 0
    HealthRegen: 0
    AutoAttackDamage: 0
    AttackSpeed: 0
    Armor: 0
    Resistance: 0
    CooldownReduction: 0
    BonusCriticalDamage: 0
    MovementSpeed: 0
    HephisaltBounty: 0
    ExperienceBounty: 0
  MaximumStacks: 2
  NoMaxStacks: 0
  HolderIsStructure: 0
  IsAura: 0
  AuraRadius: 0
  duration: 5
  AffectedByTenacity: 0
  DoNotRefreshOnStack: 0
  DropOffAltogether: 0
  damage:
  - 10
  - 25
  - 40
  - 55
  - 70
  powerScaling: 0.1
  applications: 2
  innerFireCost: 20
  innerFireGain: 10
  healthThreshold: 0.4
  cooldownReduction: 0.4
  ColdSteelBuffRef: {fileID: 11400000}
  ColdSteelShield: {fileID: 11400000, guid: 68152b9f100475c45ae29db2e5d15771, type: 2}
