%YAML 1.1
%TAG !u! tag:unity3d.com,2011:
--- !u!114 &11400000
MonoBehaviour:
  m_ObjectHideFlags: 0
  m_PrefabParentObject: {fileID: 0}
  m_PrefabInternal: {fileID: 0}
  m_GameObject: {fileID: 0}
  m_Enabled: 1
  m_EditorHideFlags: 0
  m_Script: {fileID: 11500000, guid: 0313a1782b822466b8764491ec606dbe, type: 3}
  m_Name: Corruption
  m_EditorClassIdentifier: 
  Name: Corruption passive
  Icon: {fileID: 0}
  Level: 1
  BasicAttackAnimationOverride: 
  DeathBehaviourOverride: 0
  Cooldowns:
  - 0
  Parent: {fileID: 0}
  StaticStats:
    Power: 0
    Haste: 0
    Mastery: 0
    Penetration: 0
    Lifedrain: 0
    Tenacity: 0
    BaseAttackTime: 0
    AttackRange: 0
    MaxHealth: 0
    HealthRegen: 0
    AutoAttackDamage: 0
    AttackSpeed: 0
    Armor: 0
    Resistance: 0
    CooldownReduction: 0
    BonusCriticalDamage: 0
    MovementSpeed: 0
    HephisaltBounty: 0
    ExperienceBounty: 0
  PercentileStaticStats:
    Power: 0
    Haste: 0
    Mastery: 0
    Penetration: 0
    Lifedrain: 0
    Tenacity: 0
    BaseAttackTime: 0
    AttackRange: 0
    MaxHealth: 0
    HealthRegen: 0
    AutoAttackDamage: 0
    AttackSpeed: 0
    Armor: 0
    Resistance: 0
    CooldownReduction: 0
    BonusCriticalDamage: 0
    MovementSpeed: 0
    HephisaltBounty: 0
    ExperienceBounty: 0
  MaximumStacks: 1
  NoMaxStacks: 0
  HolderIsStructure: 0
  IsAura: 0
  AuraRadius: 0
  CorruptionImmunityDuration: 5
  CorruptionDebuffDuration: 3
  CorruptionSpeedBuffDuration: 2
  CorruptionSpeedBuffIncrease: 20
  CorruptionSpeedBuff: {fileID: 11400000, guid: b731dc8af18644d22b51d6fcd3b1932e,
    type: 2}
  CorruptionDebuff: {fileID: 11400000, guid: f4bcb47335df34325833873800b1ddd5, type: 2}
  CorruptionImmunity: {fileID: 11400000, guid: 1f6cbf100275544e0a0d016b85e95778, type: 2}
  CorruptionLockout: {fileID: 11400000, guid: 1035acefd79c443668bc782a97c1bf0f, type: 2}
