%YAML 1.1
%TAG !u! tag:unity3d.com,2011:
--- !u!114 &11400000
MonoBehaviour:
  m_ObjectHideFlags: 0
  m_PrefabParentObject: {fileID: 0}
  m_PrefabInternal: {fileID: 0}
  m_GameObject: {fileID: 0}
  m_Enabled: 1
  m_EditorHideFlags: 0
  m_Script: {fileID: 11500000, guid: 4e34986f821df40c49f0d7b7d04044bf, type: 3}
  m_Name: Influence
  m_EditorClassIdentifier: 
  Name: Influence passive
  StatsByLevel: []
  Level: 1
  BasicAttackAnimationOverride: 
  DeathBehaviourOverride: 0
  Cooldowns:
  - 0
  Source: {fileID: 0}
  Target: {fileID: 0}
  Parent: {fileID: 0}
  StaticStats:
    Power: 0
    Haste: 0
    Mastery: 0
    Penetration: 0
    Lifedrain: 0
    Tenacity: 0
    BaseAttackTime: 0
    AttackRange: 0
    MaxHealth: 0
    HealthRegen: 0
    AutoAttackDamage: 0
    AttackSpeed: 0
    Armor: 0
    Resistance: 0
    CooldownReduction: 0
    BonusCriticalDamage: 0
    MovementSpeed: 0
    HephisaltBounty: 0
    ExperienceBounty: 0
  PercentileStaticStats:
    Power: 0
    Haste: 0
    Mastery: 0
    Penetration: 0
    Lifedrain: 0
    Tenacity: 0
    BaseAttackTime: 0
    AttackRange: 0
    MaxHealth: 0
    HealthRegen: 0
    AutoAttackDamage: 0
    AttackSpeed: 0
    Armor: 0
    Resistance: 0
    CooldownReduction: 0
    BonusCriticalDamage: 0
    MovementSpeed: 0
    HephisaltBounty: 0
    ExperienceBounty: 0
  MaximumStacks: 1
  NoMaxStacks: 0
  HolderIsStructure: 0
  IsAura: 0
  AuraRadius: 0
  InfluenceBuffBuildingMaxStacks: 3
  InfluenceSpeedBuffIncrease: 30
  InfluenceSpeedBuffDuration: 2
  InfluencePassiveBonusAttackDamage: 0.5
  InfluenceMarkDuration: 6
  InfluenceSpeedBuff: {fileID: 11400000, guid: 06964d14d3b5249b79994bf208a235b4, type: 2}
  InfluenceBuffBuilding: {fileID: 11400000, guid: f14f566e983794c639caf519aea130dd,
    type: 2}
  InfluenceBuff: {fileID: 11400000, guid: 68b4536b0b98c4a21858501b88417c2f, type: 2}
  InfluenceMark: {fileID: 11400000, guid: 4bdbde17c11934412b16894a2b8b1e71, type: 2}
