%YAML 1.1
%TAG !u! tag:unity3d.com,2011:
--- !u!114 &11400000
MonoBehaviour:
  m_ObjectHideFlags: 0
  m_PrefabParentObject: {fileID: 0}
  m_PrefabInternal: {fileID: 0}
  m_GameObject: {fileID: 0}
  m_Enabled: 1
  m_EditorHideFlags: 0
  m_Script: {fileID: 11500000, guid: 55ef553084f5c410381e0b9172cc248e, type: 3}
  m_Name: Tower Kit
  m_EditorClassIdentifier: 
  kitName: tower kit
  attackHitTime: 0.6
  passives:
  - {fileID: 11400000, guid: 784b9dd709f314fa6848a5836d0e33e9, type: 2}
