# Blender v2.76 (sub 0) OBJ File: ''
# www.blender.org
mtllib cone_cylinder.mtl
o Cone_cylinder_Cylinder
v 0.000000 0.015713 -1.000000
v -0.000000 0.827793 -1.500000
v 0.195090 0.015713 -0.980785
v 0.292635 0.827793 -1.471178
v 0.382683 0.015713 -0.923880
v 0.574025 0.827793 -1.385819
v 0.555570 0.015713 -0.831470
v 0.833355 0.827793 -1.247204
v 0.707107 0.015713 -0.707107
v 1.060660 0.827793 -1.060660
v 0.831470 0.015713 -0.555570
v 1.247204 0.827793 -0.833355
v 0.923880 0.015713 -0.382683
v 1.385819 0.827793 -0.574025
v 0.980785 0.015713 -0.195090
v 1.471178 0.827793 -0.292635
v 1.000000 0.015713 -0.000000
v 1.500000 0.827793 0.000000
v 0.980785 0.015713 0.195090
v 1.471178 0.827793 0.292635
v 0.923880 0.015713 0.382683
v 1.385819 0.827793 0.574025
v 0.831470 0.015713 0.555570
v 1.247204 0.827793 0.833355
v 0.707107 0.015713 0.707107
v 1.060660 0.827793 1.060660
v 0.555570 0.015713 0.831470
v 0.833355 0.827793 1.247205
v 0.382683 0.015713 0.923880
v 0.574025 0.827793 1.385820
v 0.195090 0.015713 0.980785
v 0.292635 0.827793 1.471178
v -0.000000 0.015713 1.000000
v -0.000001 0.827793 1.500000
v -0.195091 0.015713 0.980785
v -0.292636 0.827793 1.471178
v -0.382684 0.015713 0.923879
v -0.574026 0.827793 1.385819
v -0.555571 0.015713 0.831469
v -0.833356 0.827793 1.247204
v -0.707107 0.015713 0.707106
v -1.060661 0.827793 1.060660
v -0.831470 0.015713 0.555570
v -1.247205 0.827793 0.833355
v -0.923880 0.015713 0.382683
v -1.385820 0.827793 0.574024
v -0.980785 0.015713 0.195089
v -1.471178 0.827793 0.292634
v -1.000000 0.015713 -0.000001
v -1.500000 0.827793 -0.000001
v -0.980785 0.015713 -0.195091
v -1.471178 0.827793 -0.292637
v -0.923879 0.015713 -0.382684
v -1.385819 0.827793 -0.574027
v -0.831469 0.015713 -0.555571
v -1.247203 0.827793 -0.833357
v -0.707106 0.015713 -0.707108
v -1.060659 0.827793 -1.060661
v -0.555569 0.015713 -0.831470
v -0.833354 0.827793 -1.247205
v -0.382682 0.015713 -0.923880
v -0.574023 0.827793 -1.385820
v -0.195089 0.015713 -0.980786
v -0.292633 0.827793 -1.471178
vt 0.491151 0.482854
vt 0.262731 0.057153
vt 0.353844 0.019367
vt 0.494443 0.481449
vt 0.450605 0.000100
vt 0.497948 0.480711
vt 0.549278 0.000100
vt 0.501531 0.480670
vt 0.646052 0.019372
vt 0.505052 0.481327
vt 0.737188 0.057170
vt 0.508378 0.482657
vt 0.819166 0.112033
vt 0.511379 0.484608
vt 0.888816 0.181837
vt 0.513941 0.487105
vt 0.943449 0.263875
vt 0.515964 0.490051
vt 0.980957 0.354965
vt 0.517372 0.493332
vt 0.999900 0.451571
vt 0.518111 0.496821
vt 0.999564 0.549943
vt 0.518153 0.500383
vt 0.979987 0.646265
vt 0.517496 0.503881
vt 0.941965 0.736808
vt 0.516167 0.507178
vt 0.887014 0.818085
vt 0.514219 0.510148
vt 0.817305 0.886991
vt 0.511725 0.512673
vt 0.735571 0.940933
vt 0.508779 0.514657
vt 0.644987 0.977939
vt 0.505494 0.516021
vt 0.549017 0.996723
vt 0.501991 0.516714
vt 0.451266 0.996723
vt 0.498401 0.516707
vt 0.355227 0.977950
vt 0.494877 0.516107
vt 0.264547 0.940921
vt 0.491551 0.514825
vt 0.182731 0.886924
vt 0.488550 0.512914
vt 0.112970 0.817954
vt 0.485988 0.510451
vt 0.057999 0.736624
vt 0.483963 0.507531
vt 0.019983 0.646050
vt 0.482551 0.504269
vt 0.000422 0.549725
vt 0.481808 0.500791
vt 0.000100 0.451374
vt 0.481762 0.497231
vt 0.019048 0.354805
vt 0.482416 0.493728
vt 0.056547 0.263759
vt 0.483744 0.490417
vt 0.111160 0.181762
vt 0.485696 0.487427
vt 0.488197 0.484873
vt 0.180783 0.111993
vn 0.083600 -0.522500 -0.848600
vn 0.247500 -0.522500 -0.815900
vn 0.401900 -0.522500 -0.752000
vn 0.540900 -0.522500 -0.659100
vn 0.659100 -0.522500 -0.540900
vn 0.752000 -0.522500 -0.401900
vn 0.815900 -0.522500 -0.247500
vn 0.848600 -0.522500 -0.083600
vn 0.848600 -0.522500 0.083600
vn 0.815900 -0.522500 0.247500
vn 0.752000 -0.522500 0.401900
vn 0.659100 -0.522500 0.540900
vn 0.540900 -0.522500 0.659100
vn 0.401900 -0.522500 0.752000
vn 0.247500 -0.522500 0.815900
vn 0.083600 -0.522500 0.848600
vn -0.083600 -0.522500 0.848600
vn -0.247500 -0.522500 0.815900
vn -0.401900 -0.522500 0.752000
vn -0.540900 -0.522500 0.659100
vn -0.659100 -0.522500 0.540900
vn -0.752000 -0.522500 0.401900
vn -0.815900 -0.522500 0.247500
vn -0.848600 -0.522500 0.083600
vn -0.848600 -0.522500 -0.083600
vn -0.815900 -0.522500 -0.247500
vn -0.752000 -0.522500 -0.401900
vn -0.659100 -0.522500 -0.540900
vn -0.540900 -0.522500 -0.659100
vn -0.401900 -0.522500 -0.752000
vn -0.083600 -0.522500 -0.848600
vn -0.247500 -0.522500 -0.815900
usemtl None
s off
f 1/1/1 2/2/1 4/3/1 3/4/1
f 3/4/2 4/3/2 6/5/2 5/6/2
f 5/6/3 6/5/3 8/7/3 7/8/3
f 7/8/4 8/7/4 10/9/4 9/10/4
f 9/10/5 10/9/5 12/11/5 11/12/5
f 11/12/6 12/11/6 14/13/6 13/14/6
f 13/14/7 14/13/7 16/15/7 15/16/7
f 15/16/8 16/15/8 18/17/8 17/18/8
f 17/18/9 18/17/9 20/19/9 19/20/9
f 19/20/10 20/19/10 22/21/10 21/22/10
f 21/22/11 22/21/11 24/23/11 23/24/11
f 23/24/12 24/23/12 26/25/12 25/26/12
f 25/26/13 26/25/13 28/27/13 27/28/13
f 27/28/14 28/27/14 30/29/14 29/30/14
f 29/30/15 30/29/15 32/31/15 31/32/15
f 31/32/16 32/31/16 34/33/16 33/34/16
f 33/34/17 34/33/17 36/35/17 35/36/17
f 35/36/18 36/35/18 38/37/18 37/38/18
f 37/38/19 38/37/19 40/39/19 39/40/19
f 39/40/20 40/39/20 42/41/20 41/42/20
f 41/42/21 42/41/21 44/43/21 43/44/21
f 43/44/22 44/43/22 46/45/22 45/46/22
f 45/46/23 46/45/23 48/47/23 47/48/23
f 47/48/24 48/47/24 50/49/24 49/50/24
f 49/50/25 50/49/25 52/51/25 51/52/25
f 51/52/26 52/51/26 54/53/26 53/54/26
f 53/54/27 54/53/27 56/55/27 55/56/27
f 55/56/28 56/55/28 58/57/28 57/58/28
f 57/58/29 58/57/29 60/59/29 59/60/29
f 59/60/30 60/59/30 62/61/30 61/62/30
f 63/63/31 64/64/31 2/2/31 1/1/31
f 61/62/32 62/61/32 64/64/32 63/63/32
